%YAML 1.1
%TAG !u! tag:unity3d.com,2011:
--- !u!1045 &1
EditorBuildSettings:
  m_ObjectHideFlags: 0
  serializedVersion: 2
  m_Scenes:
  - enabled: 1
    path: Assets/Scenes/Menu.unity
    guid: 33509d6e0e9397e4d933018f981e61c9
  - enabled: 1
    path: Assets/Scenes/SampleScene.unity
    guid: 9fc0d4010bbf28b4594072e72b8655ab
  - enabled: 0
    path: Assets/Scenes/SampleScene_2.unity
    guid: fbc46bb07b32cf94c959b58d63ba45df
  - enabled: 0
    path: 
    guid: 00000000000000000000000000000000
  m_configObjects: {}
